<svg width="128" height="128" viewBox="0 0 128 128" fill="none" xmlns="http://www.w3.org/2000/svg">
<g clip-path="url(#clip0_1_33)" filter="url(#filter0_i_1_33)">
<g clip-path="url(#clip1_1_33)">
<g clip-path="url(#clip2_1_33)">
<path d="M0.297676 44.7776C0.297676 22.3256 0.297676 14.2476 7.27262 7.27262C14.2476 0.297676 22.3256 0.297676 47.9256 0.297676H80.0745C105.674 0.297676 113.752 0.297676 120.727 7.27262C127.702 14.2476 127.702 22.3256 127.702 47.9256V80.0745C127.702 105.674 127.702 113.752 120.727 120.727C113.752 127.702 105.674 127.702 80.0744 127.702H47.9255C22.3256 127.702 14.2476 127.702 7.27262 120.727C0.297676 113.752 0.297676 105.674 0.297676 80.0744V44.7776Z" fill="#FF0000"/>
</g>
</g>
</g>
<path d="M100.981 13.27C100.572 14.264 100.23 15.4404 99.9776 16.75H108.022C107.77 15.4404 107.428 14.264 107.019 13.27C106.566 12.17 106.046 11.3292 105.506 10.7751C104.969 10.2234 104.46 10 104 10C103.54 10 103.031 10.2234 102.494 10.7751C101.954 11.3292 101.434 12.17 100.981 13.27ZM100.836 10.4216C100.365 11.0609 99.9505 11.8334 99.5942 12.6988C99.1131 13.8672 98.7247 15.2389 98.4518 16.75H93.2063C94.7043 13.6761 97.4766 11.3374 100.836 10.4216ZM107.164 10.4216C107.635 11.0609 108.049 11.8334 108.406 12.6988C108.887 13.8672 109.275 15.2389 109.548 16.75H114.794C113.296 13.6761 110.523 11.3374 107.164 10.4216ZM115.402 18.25H109.775C109.922 19.4424 110 20.7012 110 22C110 23.2988 109.922 24.5576 109.775 25.75H115.402C115.79 24.5702 116 23.3096 116 22C116 20.6904 115.79 19.4298 115.402 18.25ZM114.794 27.25H109.548C109.275 28.7611 108.887 30.1328 108.406 31.3012C108.049 32.1666 107.635 32.9391 107.164 33.5784C110.523 32.6626 113.296 30.3239 114.794 27.25ZM104 34C104.46 34 104.969 33.7766 105.506 33.2249C106.046 32.6708 106.566 31.83 107.019 30.73C107.428 29.736 107.77 28.5596 108.022 27.25H99.9776C100.23 28.5596 100.572 29.736 100.981 30.73C101.434 31.83 101.954 32.6708 102.494 33.2249C103.031 33.7766 103.54 34 104 34ZM100.836 33.5784C97.4766 32.6626 94.7043 30.3239 93.2063 27.25H98.4518C98.7247 28.7611 99.1131 30.1328 99.5942 31.3012C99.9505 32.1666 100.365 32.9391 100.836 33.5784ZM92.5976 25.75H98.2249C98.0781 24.5576 98 23.2988 98 22C98 20.7012 98.0781 19.4424 98.2249 18.25H92.5976C92.2098 19.4298 92 20.6904 92 22C92 23.3096 92.2098 24.5702 92.5976 25.75ZM99.5 22C99.5 20.688 99.5835 19.4282 99.7369 18.25H108.263C108.416 19.4282 108.5 20.688 108.5 22C108.5 23.3121 108.416 24.5718 108.263 25.75H99.7369C99.5835 24.5718 99.5 23.3121 99.5 22Z" fill="white"/>
<g filter="url(#filter1_i_1_33)">
<path d="M92 64L39.5 89.9808L39.5 38.0192L92 64Z" fill="#F5F5F5"/>
</g>
<defs>
<filter id="filter0_i_1_33" x="0" y="0" width="128" height="132" filterUnits="userSpaceOnUse" color-interpolation-filters="sRGB">
<feFlood flood-opacity="0" result="BackgroundImageFix"/>
<feBlend mode="normal" in="SourceGraphic" in2="BackgroundImageFix" result="shape"/>
<feColorMatrix in="SourceAlpha" type="matrix" values="0 0 0 0 0 0 0 0 0 0 0 0 0 0 0 0 0 0 127 0" result="hardAlpha"/>
<feOffset dy="4"/>
<feGaussianBlur stdDeviation="2"/>
<feComposite in2="hardAlpha" operator="arithmetic" k2="-1" k3="1"/>
<feColorMatrix type="matrix" values="0 0 0 0 0 0 0 0 0 0 0 0 0 0 0 0 0 0 0.25 0"/>
<feBlend mode="normal" in2="shape" result="effect1_innerShadow_1_33"/>
</filter>
<filter id="filter1_i_1_33" x="39.5" y="38.0192" width="52.5" height="55.9615" filterUnits="userSpaceOnUse" color-interpolation-filters="sRGB">
<feFlood flood-opacity="0" result="BackgroundImageFix"/>
<feBlend mode="normal" in="SourceGraphic" in2="BackgroundImageFix" result="shape"/>
<feColorMatrix in="SourceAlpha" type="matrix" values="0 0 0 0 0 0 0 0 0 0 0 0 0 0 0 0 0 0 127 0" result="hardAlpha"/>
<feOffset dy="4"/>
<feGaussianBlur stdDeviation="2"/>
<feComposite in2="hardAlpha" operator="arithmetic" k2="-1" k3="1"/>
<feColorMatrix type="matrix" values="0 0 0 0 0 0 0 0 0 0 0 0 0 0 0 0 0 0 0.25 0"/>
<feBlend mode="normal" in2="shape" result="effect1_innerShadow_1_33"/>
</filter>
<clipPath id="clip0_1_33">
<rect width="128" height="128" fill="white"/>
</clipPath>
<clipPath id="clip1_1_33">
<rect width="128" height="128" fill="white"/>
</clipPath>
<clipPath id="clip2_1_33">
<rect width="128" height="128" fill="white"/>
</clipPath>
</defs>
</svg>
